%YAML 1.1
%TAG !u! tag:unity3d.com,2011:
--- !u!1 &108686
GameObject:
  m_ObjectHideFlags: 0
  m_PrefabParentObject: {fileID: 0}
  m_PrefabInternal: {fileID: 100100000}
  serializedVersion: 4
  m_Component:
  - 4: {fileID: 408686}
  - 212: {fileID: 21208686}
  - 60: {fileID: 6008686}
  - 50: {fileID: 5008686}
  m_Layer: 0
  m_Name: GapFillingRock
  m_TagString: Untagged
  m_Icon: {fileID: 0}
  m_NavMeshLayer: 0
  m_StaticEditorFlags: 0
  m_IsActive: 1
--- !u!4 &408686
Transform:
  m_ObjectHideFlags: 1
  m_PrefabParentObject: {fileID: 0}
  m_PrefabInternal: {fileID: 100100000}
  m_GameObject: {fileID: 108686}
  m_LocalRotation: {x: 0, y: 0, z: 0, w: 1}
  m_LocalPosition: {x: 6.95245266, y: 3.19437075, z: 0}
  m_LocalScale: {x: 2, y: 2, z: 1}
  m_Children: []
  m_Father: {fileID: 0}
  m_RootOrder: 0
--- !u!50 &5008686
Rigidbody2D:
  m_ObjectHideFlags: 1
  m_PrefabParentObject: {fileID: 0}
  m_PrefabInternal: {fileID: 100100000}
  m_GameObject: {fileID: 108686}
  m_Mass: 10
  m_LinearDrag: 0
  m_AngularDrag: .0500000007
  m_GravityScale: 1
  m_FixedAngle: 0
  m_IsKinematic: 1
  m_Interpolate: 0
  m_SleepingMode: 1
  m_CollisionDetection: 0
--- !u!60 &6008686
PolygonCollider2D:
  m_ObjectHideFlags: 1
  m_PrefabParentObject: {fileID: 0}
  m_PrefabInternal: {fileID: 100100000}
  m_GameObject: {fileID: 108686}
  m_Enabled: 1
  m_Material: {fileID: 0}
  m_IsTrigger: 0
  m_Poly:
    m_Paths:
    - - {x: .270000011, y: -.425000012}
      - {x: .289999992, y: -.254999995}
      - {x: .349999994, y: -.165000007}
      - {x: .370000005, y: -.0149999997}
      - {x: .430000007, y: .504999995}
      - {x: .479999989, y: .564999998}
      - {x: .49000001, y: .61500001}
      - {x: .50999999, y: .774999976}
      - {x: .540000021, y: 1.005}
      - {x: .540000021, y: 1.19500005}
      - {x: -.540000021, y: 1.19500005}
      - {x: -.540000021, y: 1.08500004}
      - {x: -.529999971, y: 1.04499996}
      - {x: -.379999995, y: .485000014}
      - {x: -.280000001, y: .115000002}
      - {x: -.209999993, y: .0350000001}
      - {x: -.180000007, y: -.0450000018}
      - {x: -.0900000036, y: -.495000005}
      - {x: -.0599999987, y: -.685000002}
      - {x: .0399999991, y: -1.11500001}
      - {x: .0500000007, y: -1.15499997}
      - {x: .0700000003, y: -1.19500005}
      - {x: .180000007, y: -1.19500005}
      - {x: .200000003, y: -1.15499997}
      - {x: .200000003, y: -1.05499995}
--- !u!212 &21208686
SpriteRenderer:
  m_ObjectHideFlags: 1
  m_PrefabParentObject: {fileID: 0}
  m_PrefabInternal: {fileID: 100100000}
  m_GameObject: {fileID: 108686}
  m_Enabled: 1
  m_CastShadows: 0
  m_ReceiveShadows: 0
  m_LightmapIndex: 255
  m_LightmapTilingOffset: {x: 1, y: 1, z: 0, w: 0}
  m_Materials:
  - {fileID: 10754, guid: 0000000000000000e000000000000000, type: 0}
  m_SubsetIndices: 
  m_StaticBatchRoot: {fileID: 0}
  m_UseLightProbes: 0
  m_LightProbeAnchor: {fileID: 0}
  m_ScaleInLightmap: 1
  m_SortingLayerID: 0
  m_SortingOrder: 10
  m_Sprite: {fileID: 21300000, guid: 0dd34e56351dd534aa817beec35f9535, type: 3}
  m_Color: {r: 1, g: 1, b: 1, a: 1}
--- !u!1001 &100100000
Prefab:
  m_ObjectHideFlags: 1
  serializedVersion: 2
  m_Modification:
    m_TransformParent: {fileID: 0}
    m_Modifications: []
    m_RemovedComponents: []
  m_ParentPrefab: {fileID: 0}
  m_RootGameObject: {fileID: 108686}
  m_IsPrefabParent: 1
  m_IsExploded: 1
